// Jest Snapshot v1, https://goo.gl/fbAQLP

exports[`molecules > MainNavigation snapshots - with currentPath 1`] = `
<DocumentFragment>
  .emotion-0 {
  display: -webkit-box;
  display: -webkit-flex;
  display: -ms-flexbox;
  display: flex;
  -webkit-align-items: center;
  -webkit-box-align: center;
  -ms-flex-align: center;
  align-items: center;
}

.emotion-0 button {
  color: var(--text-color);
  cursor: pointer;
  border: 0;
  background: transparent;
  outline: 0;
}

.emotion-0 button > svg {
  width: 1.5em;
  height: 1.5em;
}

@media (min-width:992px) {
  .emotion-0 {
    height: var(--header-height);
    display: none;
  }
}

<div
    class="emotion-0"
  >
    <button
      data-testid="main-navigation-menu"
      type="button"
    >
      Browse
    </button>
  </div>
  .emotion-6 {
  display: none;
  -webkit-flex-basis: 100%;
  -ms-flex-preferred-size: 100%;
  flex-basis: 100%;
  -webkit-box-flex: 1;
  -webkit-flex-grow: 1;
  -ms-flex-positive: 1;
  flex-grow: 1;
  -webkit-align-items: center;
  -webkit-box-align: center;
  -ms-flex-align: center;
  align-items: center;
}

@media (min-width:992px) {
  .emotion-6 {
    -webkit-flex-basis: auto;
    -ms-flex-preferred-size: auto;
    flex-basis: auto;
    display: -webkit-box;
    display: -webkit-flex;
    display: -ms-flexbox;
    display: flex;
  }
}

.emotion-6.open {
  display: -webkit-box;
  display: -webkit-flex;
  display: -ms-flexbox;
  display: flex;
}

.emotion-5 {
  height: 100%;
  display: -webkit-box;
  display: -webkit-flex;
  display: -ms-flexbox;
  display: flex;
  -webkit-flex-direction: column;
  -ms-flex-direction: column;
  flex-direction: column;
  margin: 0;
  padding: 0;
  list-style: none;
  -webkit-flex: 1;
  -ms-flex: 1;
  flex: 1;
}

.emotion-5 > li {
  display: -webkit-box;
  display: -webkit-flex;
  display: -ms-flexbox;
  display: flex;
  height: calc(var(--header-height-sm) + 1px);
  border-bottom: 1px solid var(--item-line-color);
}

@media (min-width:992px) {
  .emotion-5 > li {
    height: var(--header-height);
    border-bottom: 0;
  }
}

@media (min-width:992px) {
  .emotion-5 {
    -webkit-flex-direction: row;
    -ms-flex-direction: row;
    flex-direction: row;
    -webkit-flex: none;
    -ms-flex: none;
    flex: none;
  }
}

.emotion-0 {
  position: relative;
  -webkit-text-decoration: none;
  text-decoration: none;
  margin: 0 1rem;
  color: var(--text-color-1);
  display: -webkit-box;
  display: -webkit-flex;
  display: -ms-flexbox;
  display: flex;
  -webkit-align-items: center;
  -webkit-box-align: center;
  -ms-flex-align: center;
  align-items: center;
  font-weight: 400;
  cursor: pointer;
  -webkit-transition: opacity cubic-bezier(0.4,0,0.2,1) 0.3s;
  transition: opacity cubic-bezier(0.4,0,0.2,1) 0.3s;
}

.emotion-0:hover {
  color: var(--text-color);
}

.emotion-0.current {
  color: var(--text-color);
  font-weight: 700;
  cursor: default;
}

<div
    class=" emotion-6"
    data-testid="main-navigation-list"
  >
    <ul
      class="emotion-5"
    >
      <li>
        <a
          class="current emotion-0"
          href="/browse"
        >
          Home
        </a>
      </li>
      <li>
        <a
          class="emotion-0"
          href="/movies"
        >
          Movies
        </a>
      </li>
      <li>
        <a
          class="emotion-0"
          href="/tv-shows"
        >
          TV Shows
        </a>
      </li>
      <li>
        <a
          class="emotion-0"
          href="/watchlist"
        >
          Watchlist
        </a>
      </li>
      <li>
        <a
          class="emotion-0"
          href="/genres"
        >
          Genres
        </a>
      </li>
    </ul>
  </div>
</DocumentFragment>
`;

exports[`molecules > MainNavigation snapshots - without currentPath 1`] = `
<DocumentFragment>
  .emotion-0 {
  display: -webkit-box;
  display: -webkit-flex;
  display: -ms-flexbox;
  display: flex;
  -webkit-align-items: center;
  -webkit-box-align: center;
  -ms-flex-align: center;
  align-items: center;
}

.emotion-0 button {
  color: var(--text-color);
  cursor: pointer;
  border: 0;
  background: transparent;
  outline: 0;
}

.emotion-0 button > svg {
  width: 1.5em;
  height: 1.5em;
}

@media (min-width:992px) {
  .emotion-0 {
    height: var(--header-height);
    display: none;
  }
}

<div
    class="emotion-0"
  >
    <button
      data-testid="main-navigation-menu"
      type="button"
    >
      Browse
    </button>
  </div>
  .emotion-6 {
  display: none;
  -webkit-flex-basis: 100%;
  -ms-flex-preferred-size: 100%;
  flex-basis: 100%;
  -webkit-box-flex: 1;
  -webkit-flex-grow: 1;
  -ms-flex-positive: 1;
  flex-grow: 1;
  -webkit-align-items: center;
  -webkit-box-align: center;
  -ms-flex-align: center;
  align-items: center;
}

@media (min-width:992px) {
  .emotion-6 {
    -webkit-flex-basis: auto;
    -ms-flex-preferred-size: auto;
    flex-basis: auto;
    display: -webkit-box;
    display: -webkit-flex;
    display: -ms-flexbox;
    display: flex;
  }
}

.emotion-6.open {
  display: -webkit-box;
  display: -webkit-flex;
  display: -ms-flexbox;
  display: flex;
}

.emotion-5 {
  height: 100%;
  display: -webkit-box;
  display: -webkit-flex;
  display: -ms-flexbox;
  display: flex;
  -webkit-flex-direction: column;
  -ms-flex-direction: column;
  flex-direction: column;
  margin: 0;
  padding: 0;
  list-style: none;
  -webkit-flex: 1;
  -ms-flex: 1;
  flex: 1;
}

.emotion-5 > li {
  display: -webkit-box;
  display: -webkit-flex;
  display: -ms-flexbox;
  display: flex;
  height: calc(var(--header-height-sm) + 1px);
  border-bottom: 1px solid var(--item-line-color);
}

@media (min-width:992px) {
  .emotion-5 > li {
    height: var(--header-height);
    border-bottom: 0;
  }
}

@media (min-width:992px) {
  .emotion-5 {
    -webkit-flex-direction: row;
    -ms-flex-direction: row;
    flex-direction: row;
    -webkit-flex: none;
    -ms-flex: none;
    flex: none;
  }
}

.emotion-0 {
  position: relative;
  -webkit-text-decoration: none;
  text-decoration: none;
  margin: 0 1rem;
  color: var(--text-color-1);
  display: -webkit-box;
  display: -webkit-flex;
  display: -ms-flexbox;
  display: flex;
  -webkit-align-items: center;
  -webkit-box-align: center;
  -ms-flex-align: center;
  align-items: center;
  font-weight: 400;
  cursor: pointer;
  -webkit-transition: opacity cubic-bezier(0.4,0,0.2,1) 0.3s;
  transition: opacity cubic-bezier(0.4,0,0.2,1) 0.3s;
}

.emotion-0:hover {
  color: var(--text-color);
}

.emotion-0.current {
  color: var(--text-color);
  font-weight: 700;
  cursor: default;
}

<div
    class=" emotion-6"
    data-testid="main-navigation-list"
  >
    <ul
      class="emotion-5"
    >
      <li>
        <a
          class="emotion-0"
          href="/browse"
        >
          Home
        </a>
      </li>
      <li>
        <a
          class="emotion-0"
          href="/movies"
        >
          Movies
        </a>
      </li>
      <li>
        <a
          class="emotion-0"
          href="/tv-shows"
        >
          TV Shows
        </a>
      </li>
      <li>
        <a
          class="emotion-0"
          href="/watchlist"
        >
          Watchlist
        </a>
      </li>
      <li>
        <a
          class="emotion-0"
          href="/genres"
        >
          Genres
        </a>
      </li>
    </ul>
  </div>
</DocumentFragment>
`;
